Generation,PopBest,PopAvg,BestOverall
0,55708,25,-9902022,55708,25
1,4289,376,-8110616,55708,25
2,70435,12,-1,99278E+07,70435,12
3,6637,018,-5495454,70435,12
4,-3007,927,-7725872,70435,12
5,42837,62,-6216670,70435,12
6,50300,97,-6721370,70435,12
7,-1911,138,-5378928,70435,12
8,5130,689,-7163601,70435,12
9,4826,728,-5449642,70435,12
10,4019,642,-6164132,70435,12
11,7907,061,-8784569,70435,12
12,-3589,921,-4332239,70435,12
13,54140,13,-2309489,70435,12
14,55870,84,-6660464,70435,12

