Generation;PopBest;PopAvg;BestOverall
0;7608,158;-8450638;7608,158
1;-2476,651;-7333456;7608,158
2;6236,85;-6829293;7608,158
3;6480,635;-8281901;7608,158
4;6797,881;-7277434;7608,158
5;6716,199;-6227530;7608,158
6;12919,6;-7221358;12919,6
7;-62003,67;-7950552;12919,6
8;-20180,57;-7447083;12919,6
9;-51907,96;-8453904;12919,6
10;-4396,949;-9453085;12919,6
11;3025,68;-7497710;12919,6
12;55880,92;-7047281;55880,92
13;-10588,31;-5829381;55880,92
14;-9262,353;-8397878;55880,92
