Generation;PopBest;PopAvg;BestOverall
0;-3546,237;-8396844;-3546,237
1;8618,388;-7444243;8618,388
2;-951,4843;-7948011;8618,388
3;11277,63;-8954243;11277,63
4;-16554,17;-7445273;11277,63
5;-296,781;-6994530;11277,63
6;5367,543;-7890333;11277,63
7;5367,543;-4872089;11277,63
8;12948,24;-4657191;12948,24
9;19873,57;-6108415;19873,57
10;19873,57;-5986534;19873,57
11;5240,946;-6380801;19873,57
12;54441,59;-8952893;54441,59
13;7256,5;-8341570;54441,59
14;49741,59;-8945595;54441,59
