Generation,PopBest,PopAvg,BestOverall
0,55368,67,-8789107,55368,67
1,390112,-7375736,390112
2,-5253,111,-5488897,390112
3,54002,09,-3591521,390112
4,54697,32,-3925171,390112
5,48594,34,-3487347,390112
6,48594,34,-2470817,390112
7,294,1155,-4259920,390112
8,-717,4156,-3041637,390112
9,-6670,079,-4374549,390112
10,50159,96,-4759720,390112
11,59575,26,-4418062,390112
12,380,9456,-3374740,390112
13,51084,24,-4147229,390112
14,50442,4,-2302468,390112

