Generation;PopBest;PopAvg;BestOverall
0;-63868,36;-8400204;-63868,36
1;-68353,95;-8112126;-63868,36
2;4686,782;-5208643;4686,782
3;75343,31;-3979761;75343,31
4;467,795;-5662578;75343,31
5;1,68E+07;-3576153;1,68E+07
6;1,67E+07;-3541419;1,68E+07
7;6533,431;-1599626;1,68E+07
8;65361,78;-1,71E+07;1,68E+07
9;45947,44;-6611596;1,68E+07
10;-1649,175;-4826704;1,68E+07
11;61729,66;-6140457;1,68E+07
12;59521,92;-2474834;1,68E+07
13;77941,93;-5933489;1,68E+07
14;54095,41;-3912676;1,68E+07
