Generation,PopBest,PopAvg,BestOverall
0,-1465,342,-9110916,-1465,342
1,-5127,324,-9400448,-1465,342
2,-66923,7,-7604944,-1465,342
3,-63554,91,-8557298,-1465,342
4,-6679,594,-6941927,-1465,342
5,-12155,56,-8397986,-1465,342
6,-1221,534,-9398618,-1221,534
7,68962,23,-1,0515E+07,68962,23
8,54639,34,-1,000607E+07,68962,23
9,-4044,203,-6381160,68962,23
10,-4694,003,-7999138,68962,23
11,-3024,292,-6431611,68962,23
12,-3450,191,-7944889,68962,23
13,-5728,415,-5609441,68962,23
14,-18556,16,-9297445,68962,23

