Generation,PopBest,PopAvg,BestOverall
0,-6813,65,-9455035,-6813,65
1,55605,76,-7438058,55605,76
2,21178,46,-7891726,55605,76
3,-7032,524,-6420784,55605,76
4,3481,182,-5769714,55605,76
5,6124,951,-4999632,55605,76
6,9263,229,-6272989,55605,76
7,8692,93,-5101801,55605,76
8,18482,83,-3425390,55605,76
9,6796,326,-6048036,55605,76
10,51252,5,-4375839,55605,76
11,24980,13,-5,423908E+07,55605,76
12,9089,537,-2871876,55605,76
13,1699288,-2538449,1699288
14,54302,79,-2142763,1699288

