Generation;PopBest;PopAvg;BestOverall
0;-13999,2;-7443947;-13999,2
1;-11281,83;-8110171;-11281,83
2;-1883,401;-6886168;-1883,401
3;-918,8846;-5770943;-918,8846
4;47343,29;-6713546;47343,29
5;3618,378;-3749964;47343,29
6;5085,506;-7259677;47343,29
7;10981,52;-4366697;47343,29
8;-52530,66;-4658135;47343,29
9;1631070;-4870750;1631070
10;1680564;-3873153;1680564
11;10333,92;-4091185;1680564
12;4092924;-5898545;4092924
13;8941,616;-5874514;4092924
14;1682065;-3984129;4092924
