Generation;PopBest;PopAvg;BestOverall
0;9792,567;-7893027;9792,567
1;33430,44;-1,11E+07;33430,44
2;59467,96;-9896114;59467,96
3;-63437,52;-1,10E+07;59467,96
4;-3925,004;-9061147;59467,96
5;8737,541;-9115280;59467,96
6;-2890,868;-8554231;59467,96
7;-1356,157;-1,10E+07;59467,96
8;30855,68;-9894555;59467,96
9;2313,781;-7115736;59467,96
10;-5282,582;-7337390;59467,96
11;-59875,32;-8401281;59467,96
12;-2950,939;-7337933;59467,96
13;4053,596;-4821214;59467,96
14;375339;-5591088;375339
