Generation;PopBest;PopAvg;BestOverall
0;-2960,029;-6492343;-2960,029
1;50147,22;-4761891;50147,22
2;66451,26;-5154668;66451,26
3;26823,98;-8002691;66451,26
4;2125,228;-5662172;66451,26
5;-1673,586;-6831104;66451,26
6;7447,726;-1,00E+07;66451,26
7;-102,997;-7946206;66451,26
8;-2882,672;-8897584;66451,26
9;-6679,08;-9621826;66451,26
10;-68346,33;-6045706;66451,26
11;-1934,022;-7335263;66451,26
12;1343,444;-9905143;66451,26
13;2374,329;-9616224;66451,26
14;-9813,111;-5883525;66451,26
