Generation;PopBest;PopAvg;BestOverall
0;-3992,344;-7943783;-3992,344
1;-1613306;-1,21E+07;-3992,344
2;-4195,092;-9565862;-3992,344
3;4673,301;-7891200;4673,301
4;371881,5;-6425894;371881,5
5;338093,5;-8217181;371881,5
6;1905,562;-5318938;371881,5
7;7419,921;-4815696;371881,5
8;-1303,594;-7283335;371881,5
9;15690,59;-5608394;371881,5
10;376200,6;-7267521;376200,6
11;12093,25;-7386883;376200,6
12;-2650,577;-6828472;376200,6
13;1531,667;-6384315;376200,6
14;397844,3;-4577951;397844,3
