Generation|PopBest|PopAvg|BestOverall
0|-4612,9|-8951593|-4612,9
1|323272,5|-1,110162E+07|323272,5
2|54365,44|-4872599|323272,5
3|-739,629|-5114330|323272,5
4|1,000209E+08|-2487934|1,000209E+08
5|20689,35|-4544071|1,000209E+08
6|5973,291|-6725241|1,000209E+08
7|29173,09|-7284477|1,000209E+08
8|54476,41|-3988029|1,000209E+08
9|54587,14|-8886738|1,000209E+08
10|-105,6465|-5663702|1,000209E+08
11|-1956,858|-5109461|1,000209E+08
12|52685,27|-5046392|1,000209E+08
13|2330,698|-3758810|1,000209E+08
14|2731,088|-4937414|1,000209E+08
15|-66,17224|-2981567|1,000209E+08
16|7359,553|-3425314|1,000209E+08
17|-699,9036|-3031681|1,000209E+08
18|14758,38|-4246745|1,000209E+08
19|29376,48|-3589849|1,000209E+08
20|398095,6|-1,482484E+08|1,000209E+08
21|402725,5|-3857532|1,000209E+08
22|350889,7|-4477601|1,000209E+08
23|68552,24|-3878803|1,000209E+08
24|35436,87|-1,937217E+07|1,000209E+08
25|-1999,664|-5206031|1,000209E+08
26|403905|-2851732|1,000209E+08
27|2709,601|-1978990|1,000209E+08
28|41182,86|-1465646|1,000209E+08
29|11591,12|-3087592|1,000209E+08

