Generation,PopBest,PopAvg,BestOverall
0,-66764,62,-8668068,-66764,62
1,-676,0419,-7887602,-676,0419
2,3990,622,-8506121,3990,622
3,13144,41,-7993068,13144,41
4,4104225,-6636699,4104225
5,-751,8479,-5546727,4104225
6,-1710,71,-5714886,4104225
7,-14836,17,-4767081,4104225
8,13218,44,-7275958,4104225
9,3719,621,-5610530,4104225
10,22440,25,-5711067,4104225
11,-7961,963,-8735109,4104225
12,-10534,4,-6383519,4104225
13,67569,97,-6821565,4104225
14,48310,59,-6105908,4104225

