Generation,PopBest,PopAvg,BestOverall
0,305,7931,-6881649,305,7931
1,54083,67,-1,202167E+07,54083,67
2,48976,71,-8890608,54083,67
3,-16514,95,-5483578,54083,67
4,-2028,907,-8845186,54083,67
5,22229,64,-6325264,54083,67
6,1802,807,-4818119,54083,67
7,700,0444,-5548240,54083,67
8,4678,465,-4088927,54083,67
9,51773,1,-1753989,54083,67
10,4829,219,-3031271,54083,67
11,8027,066,-3987794,54083,67
12,14694,27,-4542108,54083,67
13,54334,51,-6549989,54334,51
14,468,9836,-3993080,54334,51

