Generation,PopBest,PopAvg,BestOverall
0,16162,88,-1,046062E+07,16162,88
1,16162,88,-5714292,16162,88
2,-966,5872,-3098654,16162,88
3,13529,29,-1650604,16162,88
4,1676744,-2456012,1676744
5,57511,11,-2261008,1676744
6,1,678999E+07,-3256190,1,678999E+07
7,1,678999E+07,-3822203,1,678999E+07
8,18799,41,-1815142,1,678999E+07
9,1624776,-1136699,1,678999E+07
10,84143,29,-1139159,1,678999E+07
11,5804973,-2105058,1,678999E+07
12,1690585,-3853193,1,678999E+07
13,4,306764E+07,-87595,15,4,306764E+07
14,377182,3,-4230043,4,306764E+07

