Generation;PopBest;PopAvg;BestOverall;;;;;;;;;
0;26851,5;-8497266;26851,5;;;;;;;;;
1;2774,772;-8001494;26851,5;;;;;;;;;
2;4583,555;-9458761;26851,5;;;;;;;;;
3;5178,132;-8838886;26851,5;;;;;;;;;
4;389901,7;-6366007;389901,7;;;;;;;;;
5;16223,88;-8336234;389901,7;;;;;;;;;
6;-12922,35;-8398292;389901,7;;;;;;;;;
7;-1109,625;-6160866;389901,7;;;;;;;;;
8;7561,118;-8334072;389901,7;;;;;;;;;
9;50464,13;-6827378;389901,7;;;;;;;;;
10;53047,7;-7381034;389901,7;;;;;;;;;
11;-5682,641;-6776466;389901,7;;;;;;;;;
12;60130,9;-8781678;389901,7;;;;;;;;;
13;3192,45;-6825054;389901,7;;;;;;;;;
14;-1193,59;-8616280;389901,7;;;;;;;;;
