Generation,PopBest,PopAvg,BestOverall
0,-4664,619,-9293601,-4664,619
1,46601,36,-7891332,46601,36
2,1011,715,-1,056001E+07,46601,36
3,-1516,435,-8787693,46601,36
4,-2936,243,-9349264,46601,36
5,-2304,403,-8288813,46601,36
6,-706,4531,-9401764,46601,36
7,-4998,761,-1,151979E+07,46601,36
8,-3046,524,-9403066,46601,36
9,-6893,321,-5,9139E+07,46601,36
10,55036,32,-9795401,55036,32
11,4614,918,-1,202367E+07,55036,32
12,267,2258,-7782456,55036,32
13,4025,782,-8283107,55036,32
14,9577,308,-8447986,55036,32

