Generation,PopBest,PopAvg,BestOverall
0,-58290,27,-1,113039E+07,-58290,27
1,-64196,98,-9168811,-58290,27
2,1913,864,-8053858,1913,864
3,1913,864,-5322997,1913,864
4,19816,85,-6938617,19816,85
5,-5503,438,-7390835,19816,85
6,47907,62,-5214442,47907,62
7,2800,531,-3818857,47907,62
8,48185,32,-3642509,48185,32
9,4328,53,-4548199,48185,32
10,12943,72,-4706096,48185,32
11,2590,353,-2921410,48185,32
12,2131,393,-4208501,48185,32
13,5707477,-3000140,5707477
14,60298,58,-3534766,5707477

