Generation,PopBest,PopAvg,BestOverall
0,-60855,48,-8506164,-60855,48
1,-2979,755,-9565338,-2979,755
2,-6790,716,-8453911,-2979,755
3,5657,071,-6436662,5657,071
4,46403,71,-5658318,46403,71
5,55188,16,-6930947,55188,16
6,5605,877,-2372119,55188,16
7,3377,203,-5414138,55188,16
8,19832,05,-5045147,55188,16
9,53390,2,-1811377,55188,16
10,7495,283,-1,72635E+07,55188,16
11,54199,78,-2642968,55188,16
12,5890,688,-3376071,55188,16
13,47517,88,-804242,7,55188,16
14,58428,4,-1914551,58428,4

