Generation,PopBest,PopAvg,BestOverall
0,-5051,594,-8336626,-5051,594
1,637,0521,-5214091,637,0521
2,-3612,85,-4101444,637,0521
3,-1813,493,-5212848,637,0521
4,4806,51,-4997821,4806,51
5,-1692,598,-5048635,4806,51
6,11272,16,-6603639,11272,16
7,51773,39,-1356102,51773,39
8,326904,2,-2111977,326904,2
9,402277,2,-2575379,402277,2
10,28735,58,-7095230,402277,2
11,15469,93,-2575856,402277,2
12,52935,63,-2087684,402277,2
13,5771722,-992690,3,5771722
14,-5176,193,-5,073368E+07,5771722

