Generation,PopBest,PopAvg,BestOverall
0,3415,532,-1,01194E+07,3415,532
1,2723,82,-7333938,3415,532
2,54504,98,-2742596,54504,98
3,52212,46,-1968445,54504,98
4,75227,37,-2748307,75227,37
5,2709,534,-1136505,75227,37
6,55363,76,-1747558,75227,37
7,4129,565,-3321660,75227,37
8,54405,88,-1135110,75227,37
9,3772,084,-1861321,75227,37
10,2714,393,-5603917,75227,37
11,5264,462,-1302978,75227,37
12,4534,41,-4999648,75227,37
13,48905,31,-1910600,75227,37
14,49273,35,-2365346,75227,37

