Generation,PopBest,PopAvg,BestOverall
0,-64277,82,-7551377,-64277,82
1,54327,67,-7109190,54327,67
2,55443,71,-1082803,55443,71
3,23004,01,-1026004,55443,71
4,-765,5309,-4099860,55443,71
5,8685,778,-2925167,55443,71
6,411366,1,-2855753,411366,1
7,3027,781,-4720972,411366,1
8,48386,27,-4983702,411366,1
9,-5315,672,-1865704,411366,1
10,9013,476,-742940,1,411366,1
11,7346,635,-1244097,411366,1
12,46881,47,-6255926,411366,1
13,54222,88,-1806682,411366,1
14,55473,76,-1695816,411366,1

