Generation|PopBest|PopAvg|BestOverall
0|-66907,32|-8667972|-66907,32
1|-56318,54|-1,223218E+07|-56318,54
2|-5404,385|-1,27479E+07|-5404,385
3|12032,97|-9003148|12032,97
4|3537,901|-6884525|12032,97
5|-1331,714|-8951666|12032,97
6|-3543,209|-6436359|12032,97
7|68357,3|-6720382|68357,3
8|9375,52|-7336112|68357,3
9|50507,58|-5542865|68357,3
10|6257,052|-5110988|68357,3
11|6257,052|-6105954|68357,3
12|55558,36|-6220217|68357,3
13|1303,617|-5101402|68357,3
14|54595,77|-5266354|68357,3

