Generation,PopBest,PopAvg,BestOverall
0,4432,496,-8444155,4432,496
1,-5505,805,-8395487,4432,496
2,719,062,-5824082,4432,496
3,-478,553,-6379050,4432,496
4,5348,693,-7220423,5348,693
5,-2735,568,-7279292,5348,693
6,-7699,408,-4653867,5348,693
7,-7083,816,-8505581,5348,693
8,-1143,052,-7389616,5348,693
9,806,4708,-8736297,5348,693
10,35475,88,-9115843,35475,88
11,29283,92,-8952371,35475,88
12,-1912,242,-6491586,35475,88
13,47758,6,-8897542,47758,6
14,-5151,918,-7554373,47758,6

