Generation,PopBest,PopAvg,BestOverall
0,-65532,6,-8956848,-65532,6
1,8329,533,-8002552,8329,533
2,2045,854,-5322271,8329,533
3,-6154,65,-5274766,8329,533
4,42903,8,-4815681,42903,8
5,-939,3898,-6830346,42903,8
6,54839,23,-6325856,54839,23
7,2640,453,-3037775,54839,23
8,-66,55431,-6728154,54839,23
9,-2280,205,-6332050,54839,23
10,53965,32,-4649189,54839,23
11,51038,97,-4596933,54839,23
12,5959,71,-3985329,54839,23
13,1618767,-4206263,1618767
14,-2667,625,-6723646,1618767

