Generation,PopBest,PopAvg,BestOverall
0,-63595,32,-6944247,-63595,32
1,63508,86,-7273442,63508,86
2,6694,067,-6885557,63508,86
3,350562,3,-7250480,350562,3
4,498,0717,-5056336,350562,3
5,-1923,75,-4881621,350562,3
6,373438,-5697197,373438
7,373438,-5753977,373438
8,15496,46,-6825527,373438
9,397784,9,-6096120,397784,9
10,2904,781,-7279635,397784,9
11,14645,48,-3543166,397784,9
12,7501,294,-4709786,397784,9
13,-150,5382,-6167991,397784,9
14,-78,95221,-4315082,397784,9

