Generation,PopBest,PopAvg,BestOverall
0,-27380,97,-1,051631E+07,-27380,97
1,50431,06,-7384041,50431,06
2,5173,654,-3370103,50431,06
3,80671,93,-4984961,80671,93
4,91258,54,-2748121,91258,54
5,17031,42,-3265785,91258,54
6,5782141,-1894290,5782141
7,64848,56,-3208908,5782141
8,60622,73,-4662979,5782141
9,15804,07,-5,088746E+07,5782141
10,3452,266,-1090754,5782141
11,37292,48,-1082309,5782141
12,1,679945E+07,-2179080,1,679945E+07
13,1,678268E+07,-1079979,1,679945E+07
14,3677,202,-4922714,1,679945E+07

