Generation|PopBest|PopAvg|BestOverall
0|-2962,337|-1,012001E+07|-2962,337
1|-12750,48|-1,052067E+07|-2962,337
2|1278,995|-5927616|1278,995
3|49302,95|-3433678|49302,95
4|53822,85|-3205515|53822,85
5|4423,652|-2313729|53822,85
6|38464,82|-1760555|53822,85
7|55957,34|-2820513|55957,34
8|64255,79|-2812099|64255,79
9|1612,41|-3379850|64255,79
10|374733,3|-2457042|374733,3
11|13667,84|-2758307|374733,3
12|53815,02|-2416186|374733,3
13|54319,64|-2975025|374733,3
14|10583,24|-1870786|374733,3

