Generation,PopBest,PopAvg,BestOverall
0,-63246,32,-1,219072E+07,-63246,32
1,13749,33,-9512039,13749,33
2,-66394,3,-6596496,13749,33
3,51948,5,-5929438,51948,5
4,16360,16,-6432159,51948,5
5,-25,8162,-5214537,51948,5
6,-3773,253,-5268912,51948,5
7,1675,224,-6613132,51948,5
8,681,6888,-1,101731E+07,51948,5
9,23889,78,-8782069,51948,5
10,-4772,123,-6053637,51948,5
11,14721,18,-6157642,51948,5
12,-1885,738,-6886063,51948,5
13,1,671114E+07,-6216605,1,671114E+07
14,-7742,843,-5,752907E+07,1,671114E+07

