Generation,PopBest,PopAvg,BestOverall
0,7408,152,-7834910,7408,152
1,3212,467,-7226848,7408,152
2,-5478,485,-7282395,7408,152
3,13337,39,-7222280,13337,39
4,11735,53,-5154027,13337,39
5,8836,354,-4537760,13337,39
6,50720,26,-6557824,50720,26
7,11266,86,-5498106,50720,26
8,1,672821E+07,-7165235,1,672821E+07
9,56665,84,-4092383,1,672821E+07
10,13784,77,-5486631,1,672821E+07
11,-6923,479,-8399612,1,672821E+07
12,324905,6,-8219629,1,672821E+07
13,23427,98,-5929375,1,672821E+07
14,53800,59,-3924646,1,672821E+07

