Generation,PopBest,PopAvg,BestOverall
0,-3582,918,-1,056948E+07,-3582,918
1,-661,2675,-1,345356E+07,-661,2675
2,-846,5148,-6381036,-661,2675
3,-4920,352,-8452203,-661,2675
4,-6284,837,-6833336,-661,2675
5,9025,909,-6328812,9025,909
6,106,1182,-5609262,9025,909
7,41876,8,-6052428,41876,8
8,5283,398,-2982341,41876,8
9,60656,91,-5707821,60656,91
10,60656,91,-5202376,60656,91
11,48698,11,-3022685,60656,91
12,57744,8,-3989038,60656,91
13,8559,369,-3536523,60656,91
14,60558,71,-5653325,60656,91

