Generation,PopBest,PopAvg,BestOverall
0,-2516,039,-7890436,-2516,039
1,-8979,69,-9454976,-2516,039
2,14863,49,-6605830,14863,49
3,1158,892,-7942899,14863,49
4,-488,92,-6166854,14863,49
5,4491,993,-2978904,14863,49
6,60295,96,-8483362,60295,96
7,-2741,068,-6273606,60295,96
8,7789,13,-7331417,60295,96
9,-620,3588,-5157198,60295,96
10,80174,53,-7378807,80174,53
11,91809,8,-6324230,91809,8
12,6481,139,-7819837,91809,8
13,12824,13,-5553014,91809,8
14,479,9976,-5,52991E+07,91809,8

