Generation,PopBest,PopAvg,BestOverall
0,5235,873,-1,006828E+07,5235,873
1,4276,733,-9849313,5235,873
2,14895,37,-8394342,14895,37
3,2378,487,-8340587,14895,37
4,16075,56,-5601099,16075,56
5,6962,001,-7866281,16075,56
6,23751,24,-6657255,23751,24
7,1,674108E+07,-7224860,1,674108E+07
8,20573,3,-6663600,1,674108E+07
9,-7884,08,-6097902,1,674108E+07
10,85030,71,-5762855,1,674108E+07
11,-308,6015,-7335195,1,674108E+07
12,-4499,158,-5827088,1,674108E+07
13,-948,268,-6780540,1,674108E+07
14,873,0534,-8736492,1,674108E+07

