Generation,PopBest,PopAvg,BestOverall
0,-9876,498,-1,440454E+07,-9876,498
1,7239,25,-7390230,7239,25
2,23681,02,-3038045,23681,02
3,28060,09,-1846334,28060,09
4,69350,92,-7781489,69350,92
5,324243,5,-4480502,324243,5
6,210,9339,-4095110,324243,5
7,68812,05,-3693342,324243,5
8,8509,42,-3931175,324243,5
9,7111,07,-2984380,324243,5
10,41395,04,-4041499,324243,5
11,7484,939,-4764351,324243,5
12,64324,61,-5149926,324243,5
13,28400,74,-3765706,324243,5
14,55441,81,-2979489,324243,5

