Generation,PopBest,PopAvg,BestOverall
0,-56185,68,-8400214,-56185,68
1,-5760,083,-8288867,-5760,083
2,-10545,41,-7678097,-5760,083
3,3155,011,-7441283,3155,011
4,20198,59,-6992163,20198,59
5,26076,24,-7221835,26076,24
6,-930,8121,-7334544,26076,24
7,2137,143,-7394142,26076,24
8,313,6417,-4095468,26076,24
9,-1441,272,-7983036,26076,24
10,-4889,493,-4155374,26076,24
11,-9161,123,-3815234,26076,24
12,54514,98,-5712003,54514,98
13,-6449,273,-4603480,54514,98
14,1527,691,-7170496,54514,98

