Generation,PopBest,PopAvg,BestOverall
0,13923,92,-9290569,13923,92
1,45725,86,-7422287,45725,86
2,72504,21,-9232125,72504,21
3,1,674228E+07,-8226434,1,674228E+07
4,-1278,551,-6771409,1,674228E+07
5,-13038,2,-8288549,1,674228E+07
6,-7148,465,-7333573,1,674228E+07
7,-1836,131,-7782296,1,674228E+07
8,-948,7236,-9895341,1,674228E+07
9,4107240,-8760506,1,674228E+07
10,3375,727,-7892939,1,674228E+07
11,-3981,396,-5770653,1,674228E+07
12,52821,94,-7273576,1,674228E+07
13,49025,3,-1,201654E+07,1,674228E+07
14,46,68627,-7115360,1,674228E+07

