Generation,PopBest,PopAvg,BestOverall
0,-6738,982,-1,15762E+07,-6738,982
1,2440,115,-8446590,2440,115
2,-4513,508,-8447644,2440,115
3,53318,77,-7495408,53318,77
4,13289,45,-8954579,53318,77
5,-3015,153,-8500062,53318,77
6,-1821,787,-7273795,53318,77
7,-7343,596,-5716741,53318,77
8,-11419,99,-8954527,53318,77
9,14079,72,-5824562,53318,77
10,-2056,381,-7786969,53318,77
11,-7869,966,-7781632,53318,77
12,-11684,8,-8952780,53318,77
13,51344,13,-8170322,53318,77
14,-7362,828,-4982365,53318,77

