Generation,PopBest,PopAvg,BestOverall
0,-3713,87,-8950385,-3713,87
1,-6025,807,-6885335,-3713,87
2,-605,9609,-7337977,-605,9609
3,-3677,454,-1,284185E+07,-605,9609
4,3082,838,-7890528,3082,838
5,4036,522,-7889043,4036,522
6,-3137,239,-7997531,4036,522
7,-61677,86,-8006897,4036,522
8,-12862,71,-8057791,4036,522
9,-632,5884,-8900602,4036,522
10,-10644,64,-6941726,4036,522
11,5725,997,-7945005,5725,997
12,46841,53,-7780372,46841,53
13,46841,53,-7884925,46841,53
14,-976,2342,-6829768,46841,53

