Generation,PopBest,PopAvg,BestOverall
0,-3544,895,-8107001,-3544,895
1,-6752,093,-8503025,-3544,895
2,2138,749,-8955932,2138,749
3,-2729,418,-6995194,2138,749
4,2126,806,-9564543,2138,749
5,9436,943,-7228768,9436,943
6,-2504,756,-7284007,9436,943
7,357303,6,-7487291,357303,6
8,-3851,952,-9509283,357303,6
9,2262,354,-9399026,357303,6
10,-14576,17,-8900810,357303,6
11,7961,111,-7946451,357303,6
12,-10890,31,-7444593,357303,6
13,54414,35,-7890403,357303,6
14,54414,35,-6162496,357303,6

