Generation|PopBest|PopAvg|BestOverall
0|-4138,766|-1,01227E+07|-4138,766
1|-5572,846|-9565379|-4138,766
2|10195,51|-9939152|10195,51
3|-11152,28|-5273466|10195,51
4|-163,0006|-6774684|10195,51
5|53425,87|-4546469|53425,87
6|-2955,954|-3089213|53425,87
7|12825,91|-5205148|53425,87
8|12260,82|-2759118|53425,87
9|235,6267|-1758699|53425,87
10|10097,49|-2818473|53425,87
11|15002,81|-4092616|53425,87
12|53646,48|-4706804|53646,48
13|-148,3455|-1255913|53646,48
14|-4739,12|-2478638|53646,48

