Generation|PopBest|PopAvg|BestOverall
0|-6814,112|-6993458|-6814,112
1|-58003,37|-7339381|-6814,112
2|54336,02|-7328720|54336,02
3|-558,3578|-7389394|54336,02
4|-1654,354|-5211089|54336,02
5|1998,141|-5049403|54336,02
6|61911,01|-4521602|61911,01
7|49740,52|-3375507|61911,01
8|6826,914|-3589860|61911,01
9|2715,953|-4764426|61911,01
10|-1659,865|-2593516|61911,01
11|1459,04|-2314274|61911,01
12|5811623|-5461653|5811623
13|9508,741|-1,834953E+07|5811623
14|338707,4|-7193645|5811623

