Generation,PopBest,PopAvg,BestOverall
0,-9059,627,-8843141,-9059,627
1,-10454,25,-1,057053E+07,-9059,627
2,-3688,693,-1,278666E+07,-3688,693
3,1705,325,-7998877,1705,325
4,2474,211,-8394978,2474,211
5,-4304,716,-8339633,2474,211
6,13,43507,-6272630,2474,211
7,4256,766,-9240555,4256,766
8,-2824,392,-5762644,4256,766
9,-6035,011,-7839355,4256,766
10,54735,1,-6103960,54735,1
11,-9495,174,-6725891,54735,1
12,-13452,16,-5216657,54735,1
13,-4938,95,-6381897,54735,1
14,52493,14,-5659385,54735,1

