Generation,PopBest,PopAvg,BestOverall
0,-10924,63,-9061989,-10924,63
1,54993,36,-8501059,54993,36
2,2030,119,-5603635,54993,36
3,2723,959,-5051786,54993,36
4,-3838,878,-2422884,54993,36
5,54875,85,-5149872,54993,36
6,-1810,331,-3035703,54993,36
7,1650049,-5208883,1650049
8,13503,52,-3322922,1650049
9,50332,45,-4932522,1650049
10,1701699,-6758451,1701699
11,52905,04,-4266659,1701699
12,7239,863,-5042306,1701699
13,68351,47,-8839769,1701699
14,15347,86,-5153805,1701699

