Generation,PopBest,PopAvg,BestOverall
0,-3575,998,-9006419,-3575,998
1,51529,77,-9281562,51529,77
2,45,89136,-3934117,51529,77
3,12757,84,-1682734,51529,77
4,5463,704,-3325382,51529,77
5,52535,27,-1468582,52535,27
6,5726,354,-3531733,52535,27
7,9179,693,-1806048,52535,27
8,-698,7942,-2975058,52535,27
9,49664,61,-2308417,52535,27
10,53938,77,-2922342,53938,77
11,7832,425,-2197457,53938,77
12,12809,31,-2647719,53938,77
13,97443,55,-4819530,97443,55
14,325289,8,-4571489,325289,8

