Generation;PopBest;PopAvg;BestOverall
0;-347,5892;-7945558;-347,5892
1;-14845,22;-9668896;-347,5892
2;12179,16;-5824688;12179,16
3;3695,196;-5317859;12179,16
4;-5017,375;-3651639;12179,16
5;5192,752;-2478820;12179,16
6;58512,17;-5470157;58512,17
7;54590,52;-1700606;58512,17
8;49668,82;-1307311;58512,17
9;5209,29;-1809053;58512,17
10;54776,25;-1755317;58512,17
11;54076,48;-3367101;58512,17
12;-1847,402;-2316101;58512,17
13;54505,3;-742352,8;58512,17
14;6489,619;-1307537;58512,17
