Generation;PopBest;PopAvg;BestOverall
0;36098,11;-8892582;36098,11
1;5960,542;-8443955;36098,11
2;-10060,85;-6833883;36098,11
3;55137,79;-5040157;55137,79
4;-425,257;-5494576;55137,79
5;48713,68;-5601633;55137,79
6;5212,953;-2871126;55137,79
7;53686,36;-4092031;55137,79
8;724,7045;-1592272;55137,79
9;5071,174;-6367012;55137,79
10;51022,22;-2923293;55137,79
11;54566,46;-1413347;55137,79
12;-19,16373;-1252862;55137,79
13;13864,55;-2037364;55137,79
14;55092,74;-3921264;55137,79
