Generation|PopBest|PopAvg|BestOverall
0|4973,429|-9059045|4973,429
1|-7947,955|-7388371|4973,429
2|397794,3|-7930632|397794,3
3|64591,45|-4705535|397794,3
4|20983,11|-5254539|397794,3
5|1762,538|-5771232|397794,3
6|440,4129|-8952097|397794,3
7|46174,2|-6608883|397794,3
8|-1895,952|-5444265|397794,3
9|-3219,328|-5660078|397794,3
10|-3161,034|-7942029|397794,3
11|7525,327|-7273174|397794,3
12|-14195,07|-6224834|397794,3
13|-3798,187|-5,345144E+07|397794,3
14|-3450,531|-6560829|397794,3

