Generation;PopBest;PopAvg;BestOverall
0;-3833,177;-9397230;-3833,177
1;6799,188;-5610061;6799,188
2;6718,575;-8288985;6799,188
3;-65166,14;-8059994;6799,188
4;3932,894;-8611988;6799,188
5;-777,012;-9959977;6799,188
6;4000,291;-8900074;6799,188
7;-5884,535;-7392787;6799,188
8;-678,9344;-5814818;6799,188
9;-1812,586;-9845207;6799,188
10;-12201,25;-9458596;6799,188
11;-3924,344;-1,04E+07;6799,188
12;87928,1;-7268783;87928,1
13;1,68E+07;-8898498;1,68E+07
14;-6483,055;-8848282;1,68E+07
