Generation;PopBest;PopAvg;BestOverall
0;-46330,85;-1,06E+07;-46330,85
1;7577,522;-6884253;7577,522
2;-4055,582;-9905010;7577,522
3;-4584,083;-8391313;7577,522
4;-4005,589;-1,03E+07;7577,522
5;1006,72;-6716905;7577,522
6;54118,41;-6827349;54118,41
7;2500,611;-1,01E+07;54118,41
8;-1848,911;-5547973;54118,41
9;-2746,319;-6492803;54118,41
10;-3594,907;-7943708;54118,41
11;-2975,212;-8051268;54118,41
12;-3276,097;-7335519;54118,41
13;49500,42;-9237654;54118,41
14;-2460,481;-6939040;54118,41
