Generation;PopBest;PopAvg;BestOverall
0;-2941,375;-1,38E+07;-2941,375
1;42431,88;-1,11E+07;42431,88
2;-1079,006;-9566516;42431,88
3;-853,57;-9005047;42431,88
4;5007,861;-6990785;42431,88
5;18596,18;-7439903;42431,88
6;-17843,31;-6494550;42431,88
7;4237,709;-1,07E+07;42431,88
8;-6133,461;-1,02E+07;42431,88
9;1430,722;-8339822;42431,88
10;-9714,402;-8506594;42431,88
11;5122,675;-6997053;42431,88
12;66596,95;-8843943;66596,95
13;-11973,39;-1,09E+07;66596,95
14;19516,43;-7117653;66596,95
