Generation,PopBest,PopAvg,BestOverall
0,-3444,769,-7171871,-3444,769
1,62034,87,-1,15637E+07,62034,87
2,2471,018,-9502249,62034,87
3,9253,023,-5205427,62034,87
4,14690,03,-6214643,62034,87
5,-6170,218,-1,117155E+07,62034,87
6,4159,519,-8737144,62034,87
7,11355,73,-7786954,62034,87
8,369920,5,-9838522,369920,5
9,56517,39,-7880515,369920,5
10,60875,77,-6606232,369920,5
11,-7832,917,-1,141717E+07,369920,5
12,63286,49,-1,044295E+07,369920,5
13,-5651,527,-1,128092E+07,369920,5
14,-21616,33,-9675209,369920,5

