Generation,PopBest,PopAvg,BestOverall
0,-64225,74,-8558540,-64225,74
1,52069,12,-1,107194E+07,52069,12
2,-61304,3,-7556128,52069,12
3,10227,42,-6781057,52069,12
4,-2929,947,-6492907,52069,12
5,48959,66,-6938281,52069,12
6,-4947,632,-7050837,52069,12
7,-60769,04,-7610237,52069,12
8,-96,33347,-7331445,52069,12
9,2116,33,-6671144,52069,12
10,-2974,665,-4154543,52069,12
11,42555,14,-4871592,52069,12
12,5690581,-4013832,5690581
13,-6542,268,-9664611,5690581
14,9256,313,-6489287,5690581

