Generation|PopBest|PopAvg|BestOverall
0|-63499,24|-6997990|-63499,24
1|52351,32|-7493133|52351,32
2|54341,51|-8944842|54341,51
3|18043,66|-9115467|54341,51
4|-61137,95|-5936326|54341,51
5|-875,7013|-7893360|54341,51
6|9911,804|-8947415|54341,51
7|-4015,965|-6881986|54341,51
8|-5619,967|-7998106|54341,51
9|77076,73|-5876809|77076,73
10|-5658,479|-8898359|77076,73
11|34557,93|-1,144785E+07|77076,73
12|9100,432|-8950956|77076,73
13|-1469,147|-6611025|77076,73
14|4046,306|-5930700|77076,73

