Generation,PopBest,PopAvg,BestOverall
0,-16157,01,-7943969,-16157,01
1,-5350,94,-7886759,-5350,94
2,-4832,083,-6885051,-4832,083
3,-3102,919,-5268821,-3102,919
4,-3716,564,-6216723,-3102,919
5,35134,5,-6328453,35134,5
6,-2618,604,-6221195,35134,5
7,27743,67,-7784750,35134,5
8,-67260,72,-8164531,35134,5
9,54534,3,-8550309,54534,3
10,1,673042E+07,-6932992,1,673042E+07
11,1626913,-7170482,1,673042E+07
12,4125,003,-5215691,1,673042E+07
13,-2987,922,-5266963,1,673042E+07
14,1391,978,-6277902,1,673042E+07

