Generation|PopBest|PopAvg|BestOverall
0|-10045,99|-1,067698E+07|-10045,99
1|-5019,641|-8505098|-5019,641
2|9351,236|-6219127|9351,236
3|9844,846|-5207652|9844,846
4|65265,73|-5765440|65265,73
5|54884,41|-7817415|65265,73
6|519,9461|-3436721|65265,73
7|54678,43|-5549901|65265,73
8|53054,51|-3487306|65265,73
9|16643,65|-3023957|65265,73
10|-3701,717|-5552639|65265,73
11|3628,254|-4654607|65265,73
12|54750,55|-4600264|65265,73
13|7844,561|-2529945|65265,73
14|50478,38|-2974735|65265,73

