Generation,PopBest,PopAvg,BestOverall
0,-3663,848,-7099471,-3663,848
1,-9569,319,-5991752,-3663,848
2,413,5585,-6108904,413,5585
3,29936,81,-6054264,29936,81
4,13029,77,-4989744,29936,81
5,14655,52,-3818525,29936,81
6,21503,5,-2809979,29936,81
7,65905,2,-4978790,65905,2
8,52180,45,-3419981,65905,2
9,15116,49,-5045842,65905,2
10,3232,802,-4145515,65905,2
11,10097,14,-4649328,65905,2
12,66762,5,-6657254,66762,5
13,4337,389,-4546162,66762,5
14,-3148,898,-6097925,66762,5

