Generation,PopBest,PopAvg,BestOverall
0,6426,723,-7995547,6426,723
1,54276,96,-8228095,54276,96
2,69997,11,-4321982,69997,11
3,53987,3,-4706463,69997,11
4,55366,91,-856826,8,69997,11
5,14797,14,-3528398,69997,11
6,50183,77,-1690140,69997,11
7,979,6576,-3086338,69997,11
8,8142,031,-2130858,69997,11
9,2041,096,-2307808,69997,11
10,46898,77,-1305735,69997,11
11,-170,4163,-3757215,69997,11
12,54158,11,-1139913,69997,11
13,54012,8,-1305923,69997,11
14,51212,24,-2868566,69997,11

