Generation|PopBest|PopAvg|BestOverall
0|4158,586|-1,107231E+07|4158,586
1|53186,54|-8842574|53186,54
2|351857,3|-5810003|351857,3
3|57265,7|-4696528|351857,3
4|7358,048|-3876918|351857,3
5|-653,0374|-5221394|351857,3
6|49485,4|-3881632|351857,3
7|44393,47|-5037367|351857,3
8|-5714,591|-5721267|351857,3
9|5784,994|-5099105|351857,3
10|72082,95|-1,067424E+07|351857,3
11|13734,24|-7538809|351857,3
12|13136,19|-7783817|351857,3
13|1208,915|-3703750|351857,3
14|-1979,748|-3489281|351857,3
15|10317,93|-3532017|351857,3
16|52322,25|-4651137|351857,3
17|3882,275|-8176510|351857,3
18|-681,5099|-8501899|351857,3
19|-7683,362|-4262399|351857,3
20|54524,99|-5260809|351857,3
21|-3959,005|-7890358|351857,3
22|12016,98|-7985024|351857,3
23|-4680,005|-7999212|351857,3
24|3656,764|-6489920|351857,3
25|1692,315|-6217903|351857,3
26|8618,979|-5715133|351857,3
27|7196,252|-7883603|351857,3
28|-12885,24|-6834373|351857,3
29|-3891,853|-8902252|351857,3

