Generation|PopBest|PopAvg|BestOverall
0|-16387,85|-1,157354E+07|-16387,85
1|1633377|-6217962|1633377
2|73226,9|-8429579|1633377
3|54277,39|-5321710|1633377
4|56801,36|-5767565|1633377
5|52775,68|-6326054|1633377
6|2036,499|-5657690|1633377
7|54555,39|-6376590|1633377
8|45414,64|-4144072|1633377
9|5468,353|-5487103|1633377
10|-3372,227|-6328697|1633377
11|4550,477|-6056676|1633377
12|54865,86|-4997405|1633377
13|329535,5|-7161791|1633377
14|329535,5|-4033615|1633377
15|236,0108|-5374329|1633377
16|10961,34|-8949388|1633377
17|9972,536|-7616321|1633377
18|19666,79|-3819842|1633377
19|14116,47|-4989666|1633377
20|10251,09|-6670623|1633377
21|-9386,298|-5268866|1633377
22|-2282,962|-8180428|1633377
23|2414,878|-6223869|1633377
24|1793,577|-7267218|1633377
25|-6614,804|-1,005125E+07|1633377
26|8747,298|-5711586|1633377
27|331817,8|-3757927|1633377
28|402608,5|-5470941|1633377
29|57020,61|-3817213|1633377

