Generation|PopBest|PopAvg|BestOverall
0|-468,4555|-7782777|-468,4555
1|8419,791|-6721009|8419,791
2|10446,02|-5553930|10446,02
3|4591,3|-5160503|10446,02
4|3482,546|-6157456|10446,02
5|48053,02|-5717927|48053,02
6|2419,795|-5606011|48053,02
7|86752,52|-7929939|86752,52
8|1563,036|-4490129|86752,52
9|3181,43|-1,478207E+08|86752,52
10|54425,38|-3473801|86752,52
11|54425,38|-3827318|86752,52
12|52824,54|-4493601|86752,52
13|15901,38|-3249031|86752,52
14|-2533,845|-6939506|86752,52

