Generation|PopBest|PopAvg|BestOverall
0|-10036,93|-8895967|-10036,93
1|11569,24|-1,046232E+07|11569,24
2|38751,4|-7445304|38751,4
3|-88,52623|-7170236|38751,4
4|38287,93|-5873083|38751,4
5|-760,3734|-9399002|38751,4
6|10191,4|-7439493|38751,4
7|45592,84|-7436428|45592,84
8|11990,57|-8504393|45592,84
9|11990,57|-4816770|45592,84
10|70704,62|-6374145|70704,62
11|6179,931|-6774997|70704,62
12|53343,96|-5264491|70704,62
13|1,510921E+07|-6271315|1,510921E+07
14|-1913,137|-8347737|1,510921E+07

