Generation|PopBest|PopAvg|BestOverall
0|3805,594|-6724351|3805,594
1|13612,53|-5878493|13612,53
2|42797,85|-7105323|42797,85
3|6283,984|-5718877|42797,85
4|7508,985|-6655401|42797,85
5|98182,59|-5546513|98182,59
6|15525,15|-5601974|98182,59
7|11510,05|-7274544|98182,59
8|18225,52|-7890409|98182,59
9|18225,52|-6271201|98182,59
10|63923,09|-6988918|98182,59
11|58327,64|-1,112857E+07|98182,59
12|58327,64|-7169945|98182,59
13|-4954,851|-5106391|98182,59
14|8883,612|-7723888|98182,59

