Generation,PopBest,PopAvg,BestOverall
0,66568,48,-9492492,66568,48
1,44739,43,-7892732,66568,48
2,61794,35,-7665391,66568,48
3,389,1099,-7990658,66568,48
4,264,4339,-2,171834E+07,66568,48
5,-7983,929,-8952594,66568,48
6,13061,92,-1,051735E+07,66568,48
7,-1400,899,-7997771,66568,48
8,-4985,758,-6166266,66568,48
9,8527,082,-8450836,66568,48
10,14819,7,-8443109,66568,48
11,5239,71,-6771201,66568,48
12,-8365,345,-8897788,66568,48
13,4998,059,-7994200,66568,48
14,3655,519,-7331635,66568,48

