Generation;PopBest;PopAvg;BestOverall
0;-641,7939;-1,05E+07;-641,7939
1;6495,584;-1,01E+07;6495,584
2;54477,62;-1,09E+07;54477,62
3;-3319,784;-8052901;54477,62
4;-11904,57;-7049476;54477,62
5;-57111,23;-5487529;54477,62
6;-14334,55;-1,06E+07;54477,62
7;-7530,182;-7890979;54477,62
8;6844,151;-7945511;54477,62
9;44536,82;-6825313;54477,62
10;-8407,77;-6381025;54477,62
11;51500,54;-5425553;54477,62
12;70485,66;-6147911;70485,66
13;-4726,461;-9006722;70485,66
14;-13590,6;-6775489;70485,66
