Generation,PopBest,PopAvg,BestOverall
0,-2315,596,-9511465,-2315,596
1,7998,67,-7548007,7998,67
2,1278,516,-6269182,7998,67
3,4891,179,-7890218,7998,67
4,-4850,651,-7388841,7998,67
5,-6264,383,-8232063,7998,67
6,2495,955,-1,06037E+07,7998,67
7,2837,85,-7331571,7998,67
8,377388,3,-6707167,377388,3
9,-623,2959,-7280213,377388,3
10,20374,12,-6048954,377388,3
11,15030,85,-7387517,377388,3
12,-10649,87,-7891853,377388,3
13,-42997,51,-5883752,377388,3
14,55309,8,-1,006269E+07,377388,3

