Generation,PopBest,PopAvg,BestOverall
0,45579,2,-9508846,45579,2
1,-11176,46,-7279911,45579,2
2,12729,5,-5875594,45579,2
3,-9357,048,-7999578,45579,2
4,8858,751,-5824342,45579,2
5,-20794,52,-6943171,45579,2
6,-2984,696,-5604721,45579,2
7,55211,88,-6215351,55211,88
8,7494,76,-6154581,55211,88
9,-36719,6,-5714220,55211,88
10,-1292,415,-7996447,55211,88
11,-8468,603,-6327182,55211,88
12,10816,57,-4597887,55211,88
13,3021,649,-9005829,55211,88
14,-4425,665,-7834426,55211,88

