Generation,PopBest,PopAvg,BestOverall
0,-11428,16,-8050499,-11428,16
1,-1624057,-1,028473E+07,-11428,16
2,3643,096,-9952857,3643,096
3,32570,17,-4707163,32570,17
4,59785,03,-6881136,59785,03
5,758,7568,-6937914,59785,03
6,-390,1766,-6888247,59785,03
7,2593,3,-6218672,59785,03
8,-7677,203,-7896531,59785,03
9,-5663,725,-9117936,59785,03
10,49938,93,-6434967,59785,03
11,-5450,154,-9115066,59785,03
12,-1581,886,-9116682,59785,03
13,-5195,271,-9456460,59785,03
14,42258,36,-7833099,59785,03

