Generation;PopBest;PopAvg;BestOverall
0;3552,441;-8452145;3552.441
1;54552,76;-5820952;54552.76
2;1386,501;-8107590;54552.76
3;-18755,62;-9563825;54552.76
4;69162,61;-7334187;69162.61
5;19739,29;-7383335;69162.61
6;-1980,1;-7224496;69162.61
7;7146,2;-9451220;69162.61
8;-8140,634;-7836584;69162.61
9;30249,91;-3930103;69162.61
10;-1549,38;-4205375;69162.61
11;49073,99;-4428090;69162.61
12;-248,398;-3880682;69162.61
13;10276,1;-4644899;69162.61
14;14096,96;-8334650;69162.61
