Generation;PopBest;PopAvg;BestOverall
0;-15315,62;-9002729;-15315,62
1;-968,9397;-4980214;-968,9397
2;1075,001;-7387806;1075,001
3;-4608,484;-7945149;1075,001
4;-13215,73;-6836878;1075,001
5;-1407,976;-7894405;1075,001
6;3600,177;-6938349;3600,177
7;-2195,429;-6674344;3600,177
8;5361,388;-1,28E+07;5361,388
9;-7946,501;-7500106;5361,388
10;-1619866;-9777739;5361,388
11;-696,9529;-5821765;5361,388
12;-434,876;-7221312;5361,388
13;54493,4;-5657818;54493,4
14;-10985,89;-6279979;54493,4
