Generation|PopBest|PopAvg|BestOverall
0|-8561,524|-7284734|-8561,524
1|11164,96|-7882374|11164,96
2|1201,898|-8481227|11164,96
3|69705,78|-3084448|69705,78
4|388117,3|-5084449|388117,3
5|354144,1|-5583747|388117,3
6|48183,37|-3271688|388117,3
7|5489,396|-4488563|388117,3
8|3256,109|-5713845|388117,3
9|57969,51|-1911693|388117,3
10|-1787,766|-3432460|388117,3
11|-66737,71|-3421386|388117,3
12|47704,05|-6105069|388117,3
13|329407,5|-5145320|388117,3
14|-830,9449|-5665639|388117,3

