Generation,PopBest,PopAvg,BestOverall
0,-3447,622,-7839839,-3447,622
1,7441,586,-8792262,7441,586
2,-4030,774,-6833394,7441,586
3,-2076,348,-3699745,7441,586
4,-654,2379,-5315162,7441,586
5,-318,3745,-6725968,7441,586
6,18086,34,-6048096,18086,34
7,3863,492,-8396758,18086,34
8,166,1104,-9288407,18086,34
9,-7489,15,-6330850,18086,34
10,51075,47,-4370475,51075,47
11,453,325,-6589354,51075,47
12,-6776,466,-7284021,51075,47
13,9248,084,-5874436,51075,47
14,54597,39,-4709728,54597,39

