Generation,PopBest,PopAvg,BestOverall
0,-3862,954,-7388822,-3862,954
1,-5269,103,-8108547,-3862,954
2,2215,766,-6545166,2215,766
3,7015,618,-5424535,7015,618
4,-155,5461,-5605217,7015,618
5,5406,148,-4989907,7015,618
6,53108,33,-3092359,53108,33
7,910,3356,-6214645,53108,33
8,-3569,078,-4942512,53108,33
9,54067,17,-5043176,54067,17
10,26523,51,-4265006,54067,17
11,-6582,781,-4652842,54067,17
12,2051,219,-4931027,54067,17
13,1546,745,-4650531,54067,17
14,3521,281,-3480770,54067,17

