Generation,PopBest,PopAvg,BestOverall
0,-49162,46,-9567179,-49162,46
1,489,5955,-6716437,489,5955
2,-7880,711,-3149071,489,5955
3,53643,03,-3369319,53643,03
4,13813,21,-2476453,53643,03
5,38164,91,-4711094,53643,03
6,74072,59,-1581483,74072,59
7,5724227,-675410,3,5724227
8,57055,48,-2922735,5724227
9,56527,14,-2422733,5724227
10,5734109,-267159,5734109
11,5712925,-2402665,5734109
12,54605,82,-4970410,5734109
13,1694795,-3258609,5734109
14,67100,77,-4987666,5734109

