Generation;PopBest;PopAvg;BestOverall
0;-257,057;-8337226;-257,057
1;13118,04;-5817055;13118,04
2;57202,54;-5541550;57202,54
3;3865,261;-4255551;57202,54
4;46338,62;-3535146;57202,54
5;1156,113;-4993368;57202,54
6;1156,113;-6055232;57202,54
7;69306,91;-3311611;69306,91
8;69306,91;-7221903;69306,91
9;69514,42;-5378630;69514,42
10;78990,13;-5205928;78990,13
11;29440,98;-6157855;78990,13
12;14034,64;-5444868;78990,13
13;10834,02;-3930761;78990,13
14;48380,41;-4433254;78990,13
