Generation;PopBest;PopAvg;BestOverall
0;54412,59;-7777367;54412,59
1;1961,47;-7044665;54412,59
2;49674,22;-6932016;54412,59
3;-4684,672;-7229244;54412,59
4;-13420,95;-7945066;54412,59
5;52487,13;-6724405;54412,59
6;-2483,141;-9452036;54412,59
7;-8811,32;-5935250;54412,59
8;10409,09;-5823797;54412,59
9;1378,117;-6827647;54412,59
10;-5240,011;-8843844;54412,59
11;-6364,752;-8327729;54412,59
12;10697,04;-4485834;54412,59
13;187,6086;-4707032;54412,59
14;-515,1646;-6378528;54412,59
