Generation,PopBest,PopAvg,BestOverall
0,9012,898,-7390258,9012,898
1,-56370,36,-7046863,9012,898
2,64297,32,-7775578,64297,32
3,-6549,225,-8788503,64297,32
4,-7997,221,-8503156,64297,32
5,16366,84,-5659250,64297,32
6,10986,81,-9451771,64297,32
7,51810,19,-8048145,64297,32
8,-2533,556,-9058526,64297,32
9,8111,252,-8785270,64297,32
10,41996,79,-9507434,64297,32
11,-8570,219,-8393754,64297,32
12,9171,895,-7111905,64297,32
13,-5816,08,-8445246,64297,32
14,49859,45,-5367702,64297,32

