Generation,PopBest,PopAvg,BestOverall
0,-60086,81,-9115987,-60086,81
1,57724,68,-9451235,57724,68
2,2076,585,-6667292,57724,68
3,49864,83,-7886208,57724,68
4,-187,9834,-9564844,57724,68
5,1903,084,-9793502,57724,68
6,17339,01,-8838157,57724,68
7,54205,78,-6490213,57724,68
8,63118,31,-7381174,63118,31
9,-2660,89,-7781969,63118,31
10,-3069,775,-6374506,63118,31
11,-6519,736,-8445442,63118,31
12,12617,94,-5317005,63118,31
13,-62036,95,-1,112856E+07,63118,31
14,-55854,38,-8902829,63118,31

