Generation,PopBest,PopAvg,BestOverall
0,-4158,855,-1,017357E+07,-4158,855
1,2309,363,-4869860,2309,363
2,-1360,959,-7445237,2309,363
3,-3282,599,-6275949,2309,363
4,57852,2,-6881613,57852,2
5,-5266,158,-8112319,57852,2
6,-1667,383,-6114189,57852,2
7,-2601,924,-3597702,57852,2
8,11014,6,-3377892,57852,2
9,4502,341,-4203402,57852,2
10,6217,697,-6666984,57852,2
11,43895,98,-4541055,57852,2
12,1417,804,-3986135,57852,2
13,2236,463,-2426297,57852,2
14,-270,1575,-2481930,57852,2

