Generation;PopBest;PopAvg;BestOverall
0;4305,328;-1,00E+07;4305,328
1;-28658,88;-8612310;4305,328
2;-4959,656;-8896743;4305,328
3;-10482,37;-9456368;4305,328
4;-3840,005;-9008240;4305,328
5;11221,77;-6883104;11221,77
6;8557,75;-8341363;11221,77
7;-10719,94;-8392063;11221,77
8;-18726,47;-7337248;11221,77
9;8371,977;-7889370;11221,77
10;54218,16;-6665995;54218,16
11;1825,843;-4261471;54218,16
12;50249,38;-6819909;54218,16
13;4999,868;-7224944;54218,16
14;18513,5;-8393076;54218,16
