Generation,PopBest,PopAvg,BestOverall
0,35520,11,-8449929,35520,11
1,2022,719,-6939904,35520,11
2,54725,19,-3588024,54725,19
3,55154,71,-4646016,55154,71
4,2671,534,-3085392,55154,71
5,9680,445,-1308360,55154,71
6,-5567,212,-815807,4,55154,71
7,55059,52,-1698498,55154,71
8,1016,883,-697636,2,55154,71
9,5464,99,-1246348,55154,71
10,13544,9,-1804012,55154,71
11,8227,049,-2420471,55154,71
12,442,767,-1,508075E+07,55154,71
13,54445,31,-1303414,55154,71
14,-3073,491,-2588171,55154,71

