Generation;PopBest;PopAvg;BestOverall
0;-8311,43;-9004923;-8311,43
1;9102,074;-7277265;9102,074
2;-634,649;-5103174;9102,074
3;-2614,178;-7433198;9102,074
4;44980,93;-3429613;44980,93
5;54249,69;-1692321;54249,69
6;55412,84;-1700040;55412,84
7;19230,12;-2310237;55412,84
8;5780104;-1392398;5780104
9;1699141;-3312097;5780104
10;27629,57;-3474649;5780104
11;1688328;-1969965;5780104
12;24166,85;-3204149;5780104
13;81342,07;-798134,1;5780104
14;4090743;-3461560;5780104
