Generation;PopBest;PopAvg;BestOverall
0;14853,26;-6775921;14853,26
1;52685,62;-7107389;52685,62
2;47764,23;-4886809;52685,62
3;9777,453;-3990654;52685,62
4;68146,35;-3932403;68146,35
5;7676,245;-6163726;68146,35
6;79587,66;-6557589;79587,66
7;48431,18;-6159905;79587,66
8;15074,17;-4327787;79587,66
9;17260,42;-2475943;79587,66
10;20028,37;-5151129;79587,66
11;16731,77;-5044712;79587,66
12;18997,84;-1920493;79587,66
13;12757,93;-4935264;79587,66
14;5256,854;-6761929;79587,66
