Generation,PopBest,PopAvg,BestOverall
0,3101,689,-8556183,3101,689
1,49474,91,-2477641,49474,91
2,5459,062,-5053109,49474,91
3,11147,06,-7333115,49474,91
4,47113,-5151238,49474,91
5,17982,95,-3871216,49474,91
6,8768,089,-7222115,49474,91
7,-2667,915,-3538873,49474,91
8,52579,91,-3712982,52579,91
9,18609,08,-6548003,52579,91
10,43213,53,-4379151,52579,91
11,58995,68,-7779435,58995,68
12,5487,455,-6110292,58995,68
13,65635,42,-7256469,65635,42
14,33829,-5545080,65635,42

