Generation,PopBest,PopAvg,BestOverall
0,8435,663,-8845008,8435,663
1,-2830,99,-8787965,8435,663
2,55422,07,-8225602,55422,07
3,5990,339,-1,039357E+07,55422,07
4,-3932,997,-7335688,55422,07
5,43418,21,-9284551,55422,07
6,71022,13,-1,150406E+07,71022,13
7,23541,73,-7726311,71022,13
8,-6020,839,-9851791,71022,13
9,-3142,534,-3,762836E+08,71022,13
10,23113,36,-5148538,71022,13
11,8484,534,-9294078,71022,13
12,-3016,633,-7731102,71022,13
13,9554,97,-7781137,71022,13
14,37826,28,-8280350,71022,13

