Generation;PopBest;PopAvg;BestOverall
0;-59779,23;-9511221;-59779,23
1;-8585,089;-7657907;-8585,089
2;-8264,729;-7548866;-8264,729
3;4015,777;-9954431;4015,777
4;-4800,79;-7946091;4015,777
5;1044,865;-7440367;4015,777
6;17521,72;-5874100;17521,72
7;7199,883;-8394188;17521,72
8;-4757,204;-8392820;17521,72
9;-8891,631;-8488827;17521,72
10;15779,74;-9098446;17521,72
11;-3233,425;-9350885;17521,72
12;60492,43;-8338802;60492,43
13;-4980,929;-9346122;60492,43
14;21140,29;-9058861;60492,43
