Generation|PopBest|PopAvg|BestOverall
0|-1163,205|-8948852|-1163,205
1|4131,26|-4544054|4131,26
2|-438,0358|-5710095|4131,26
3|-73198,77|-7106159|4131,26
4|53946,4|-5927683|53946,4
5|-9456,973|-9891370|53946,4
6|-3223,082|-6725771|53946,4
7|-6172,478|-6160242|53946,4
8|5167,916|-3877663|53946,4
9|-6516,883|-5493552|53946,4
10|2675,025|-3197814|53946,4
11|-103,6205|-5499726|53946,4
12|894,2596|-5890442|53946,4
13|-3280,527|-2315426|53946,4
14|1915,468|-2472646|53946,4

