Generation,PopBest,PopAvg,BestOverall
0,-3663,07,-7389725,-3663,07
1,19093,58,-6500185,19093,58
2,14015,35,-1696802,19093,58
3,415429,-2015263,415429
4,5793647,-2215907,5793647
5,96455,98,-953468,2,5793647
6,1697502,-1870004,5793647
7,1680686,-3199546,5793647
8,1606186,-5120757,5793647
9,5769992,-2121468,5793647
10,5763920,-1631573,5793647
11,5726770,-3395715,5793647
12,4,305724E+07,-1,350946E+07,4,305724E+07
13,1,673585E+07,-3062181,4,305724E+07
14,4,306852E+07,131293,4,306852E+07

