Generation,PopBest,PopAvg,BestOverall
0,20159,41,-7334858,20159,41
1,1876,106,-7946832,20159,41
2,50583,26,-9179465,50583,26
3,55349,11,-7776888,55349,11
4,9851,353,-6212561,55349,11
5,-4678,434,-7101175,55349,11
6,-16924,94,-8505319,55349,11
7,-76,48488,-6374711,55349,11
8,2576,303,-7837633,55349,11
9,8407,49,-6829759,55349,11
10,244,3088,-7104219,55349,11
11,1479,297,-9002347,55349,11
12,373723,6,-7319264,373723,6
13,4860,002,-7445732,373723,6
14,2332,577,-6672711,373723,6

