Generation|PopBest|PopAvg|BestOverall
0|-78638,48|-8667838|-78638,48
1|5772,433|-7381616|5772,433
2|-5505,136|-8340692|5772,433
3|8148,658|-6,868343E+07|8148,658
4|-1561,449|-4099381|8148,658
5|-1156,458|-4152221|8148,658
6|-746,6299|-3928170|8148,658
7|70777,47|-7047991|70777,47
8|68934,15|-3139944|70777,47
9|11051,39|-4939067|70777,47
10|64304,62|-6544530|70777,47
11|70274,52|-4704021|70777,47
12|15207,02|-4039564|70777,47
13|9121,375|-4207965|70777,47
14|38156,24|-6602923|70777,47

