Generation|PopBest|PopAvg|BestOverall
0|8091,485|-8952236|8091,485
1|-4520,799|-8234327|8091,485
2|55611,45|-6602638|55611,45
3|47236,6|-5488509|55611,45
4|20140,05|-6212390|55611,45
5|72620,27|-3310431|72620,27
6|42812,58|-4543754|72620,27
7|596,0414|-3988677|72620,27
8|2639,581|-5212017|72620,27
9|1180,992|-4991378|72620,27
10|9311,452|-4438974|72620,27
11|13400,39|-4140575|72620,27
12|61146,89|-1809171|72620,27
13|53051,34|-1139674|72620,27
14|-2844,379|-2823847|72620,27

