Generation,PopBest,PopAvg,BestOverall
0,-10181,62,-9565133,-10181,62
1,-12588,41,-8505650,-10181,62
2,-3416,969,-6487866,-3416,969
3,-1381,512,-8506426,-1381,512
4,-14630,99,-7104893,-1381,512
5,53499,25,-4700083,53499,25
6,-9047,859,-5380117,53499,25
7,-6709,461,-3761435,53499,25
8,-60948,26,-3,735583E+08,53499,25
9,3781,135,-7158739,53499,25
10,-64463,96,-8562178,53499,25
11,-589,58,-5935026,53499,25
12,-60847,7,-6044774,53499,25
13,55273,3,-6487221,55273,3
14,-3002,821,-5266928,55273,3

