Generation,PopBest,PopAvg,BestOverall
0,-3169,923,-7388080,-3169,923
1,65919,38,-7489987,65919,38
2,-6702,692,-1,088117E+07,65919,38
3,10173,01,-5608170,65919,38
4,16754,69,-8882110,65919,38
5,10582,9,-1,15608E+07,65919,38
6,-1812,935,-8287960,65919,38
7,7843,811,-6160202,65919,38
8,51489,05,-1,021213E+07,65919,38
9,47560,39,-5545719,65919,38
10,7160,105,-7671927,65919,38
11,-91,14824,-6563434,65919,38
12,-310,932,-8935659,65919,38
13,56184,23,-5768740,65919,38
14,18512,19,-5104769,65919,38

