Generation,PopBest,PopAvg,BestOverall
0,50740,04,-7329542,50740,04
1,8449,917,-1,00151E+07,50740,04
2,8545,322,-7438173,50740,04
3,40471,64,-9340468,50740,04
4,3377,953,-7833453,50740,04
5,-5624,174,-1,20811E+07,50740,04
6,27549,76,-6325312,50740,04
7,45562,16,-8791263,50740,04
8,7525,71,-9903129,50740,04
9,10774,38,-7170347,50740,04
10,1384,45,-8281105,50740,04
11,8232,795,-7392576,50740,04
12,-5106,914,-6327656,50740,04
13,-58301,96,-8508322,50740,04
14,-3313,904,-8793567,50740,04

