Generation,PopBest,PopAvg,BestOverall
0,-2087,668,-9669664,-2087,668
1,-1665700,-9280425,-2087,668
2,8669,911,-6724747,8669,911
3,2838,181,-6940750,8669,911
4,-65808,8,-8561597,8669,911
5,-313,8947,-9959587,8669,911
6,86,90918,-1,121988E+07,8669,911
7,-25212,23,-1,067265E+07,8669,911
8,1735,015,-7779255,8669,911
9,-987,6425,-7226096,8669,911
10,14713,79,-7891607,14713,79
11,1032,241,-9959999,14713,79
12,-1547,747,-1,051798E+07,14713,79
13,-6986,049,-7448053,14713,79
14,-5980,142,-6830206,14713,79

