Generation,PopBest,PopAvg,BestOverall
0,-61483,54,-1,012459E+07,-61483,54
1,-513,7577,-8343894,-513,7577
2,27893,11,-7115006,27893,11
3,-2829,478,-5984565,27893,11
4,5384,076,-6217751,27893,11
5,47589,98,-8333591,47589,98
6,-102,8605,-9400663,47589,98
7,50438,76,-6827283,50438,76
8,3090,71,-6492986,50438,76
9,-11507,32,-8113722,50438,76
10,63841,86,-6042021,63841,86
11,-6333,195,-7441234,63841,86
12,-5069,008,-6060005,63841,86
13,60205,35,-8391753,63841,86
14,-13920,16,-6333762,63841,86

