Generation;PopBest;PopAvg;BestOverall
0;-3287,498;-1,05E+07;-3287,498
1;-13265,63;-1,05E+07;-3287,498
2;15819,29;-7891362;15819,29
3;15102,68;-8397054;15819,29
4;-3377,833;-7392237;15819,29
5;52770,37;-7941716;52770,37
6;-16646,16;-7553171;52770,37
7;-6628,855;-8954437;52770,37
8;-6662,428;-9620725;52770,37
9;-10124,7;-7388125;52770,37
10;-54152,95;-8454187;52770,37
11;54390,07;-6774606;54390,07
12;50045,02;-6439104;54390,07
13;2264,451;-8505090;54390,07
14;6227,453;-7385486;54390,07
