Generation;PopBest;PopAvg;BestOverall
0;-10115,93;-1,05E+07;-10115,93
1;2156,007;-7386659;2156,007
2;-2585,257;-6330825;2156,007
3;-3492,463;-6832577;2156,007
4;-11459,75;-6677122;2156,007
5;10294,85;-7220425;10294,85
6;-61278,95;-7949374;10294,85
7;-8716,914;-7946627;10294,85
8;54317,62;-6774879;54317,62
9;7039,234;-5929194;54317,62
10;2568,953;-7279488;54317,62
11;-64057,88;-7554831;54317,62
12;9482,807;-8393591;54317,62
13;1979,302;-4978754;54317,62
14;40569,59;-8596422;54317,62
