Generation,PopBest,PopAvg,BestOverall
0,-9425,951,-8449526,-9425,951
1,-9018,07,-9062693,-9018,07
2,-9933,46,-8108579,-9018,07
3,-88,37785,-9058129,-88,37785
4,9004,41,-6996698,9004,41
5,7758,086,-9558803,9004,41
6,-6605,611,-7333360,9004,41
7,-827,5624,-1,096608E+07,9004,41
8,-6324,095,-8903776,9004,41
9,2087,706,-9397627,9004,41
10,4496,336,-5554699,9004,41
11,30980,13,-5550021,30980,13
12,5441,196,-7892718,30980,13
13,-19373,18,-1,052083E+07,30980,13
14,37832,55,-7491950,37832,55

