Generation,PopBest,PopAvg,BestOverall
0,70204,9,-8889695,70204,9
1,88099,93,-7879233,88099,93
2,13676,28,-4594720,88099,93
3,53532,-3197055,88099,93
4,-45849,36,-5436473,88099,93
5,-3679,361,-3145605,88099,93
6,47264,38,-4710578,88099,93
7,55140,83,-4873409,88099,93
8,14217,9,-5106040,88099,93
9,8990,01,-4484293,88099,93
10,24708,09,-4431900,88099,93
11,682,8524,-4433181,88099,93
12,916,6634,-4041511,88099,93
13,332319,7,-4983858,332319,7
14,2890,954,-5268861,332319,7

