Generation|PopBest|PopAvg|BestOverall
0|65838,73|-7491271|65838,73
1|-2813,868|-9507881|65838,73
2|-9088,862|-5773430|65838,73
3|9569,932|-5270603|65838,73
4|57823,93|-4592189|65838,73
5|58909,37|-5155920|65838,73
6|-479,8679|-4652504|65838,73
7|43104,36|-5937993|65838,73
8|-3414,798|-7175526|65838,73
9|5686,944|-6103518|65838,73
10|7526,394|-5499971|65838,73
11|2937,869|-5654687|65838,73
12|5054,144|-3646576|65838,73
13|253,4155|-2874826|65838,73
14|4717,335|-4598262|65838,73

