Generation,PopBest,PopAvg,BestOverall
0,35268,13,-5876747,35268,13
1,8038,538,-5823874,35268,13
2,11243,29,-8393220,35268,13
3,-68551,8,-9615509,35268,13
4,-5177,571,-9619463,35268,13
5,-3263,82,-9954100,35268,13
6,-3263,049,-7445605,35268,13
7,50760,11,-1,112631E+07,50760,11
8,-4091,226,-7945706,50760,11
9,32721,5,-7943702,50760,11
10,1795,885,-5712944,50760,11
11,54140,93,-6003560,54140,93
12,17333,32,-7216692,54140,93
13,-3004,233,-6829760,54140,93
14,373293,6,-6818239,373293,6

