Generation,PopBest,PopAvg,BestOverall
0,-3687,086,-8953003,-3687,086
1,1640940,-7675425,1640940
2,54651,28,-5151664,1640940
3,2,143808E+08,5224639,2,143808E+08
4,87200,99,-2865244,2,143808E+08
5,68463,8,-5479403,2,143808E+08
6,402013,6,-2607253,2,143808E+08
7,386922,5,-1907283,2,143808E+08
8,395982,5,-6346226,2,143808E+08
9,4,299872E+07,-19841,86,2,143808E+08
10,2,143131E+08,4300323,2,143808E+08
11,1684153,-3036560,2,143808E+08
12,2,143173E+08,4679832,2,143808E+08
13,5784067,-1,443349E+08,2,143808E+08
14,9,995704E+07,-1,400913E+08,2,143808E+08

