Generation,PopBest,PopAvg,BestOverall
0,-5497,429,-8397677,-5497,429
1,54589,48,-7384697,54589,48
2,-3102,764,-5209983,54589,48
3,55972,68,-4597257,55972,68
4,51370,58,-4432581,55972,68
5,-1302,485,-3320418,55972,68
6,56288,35,-3371176,56288,35
7,-6840,594,-5160804,56288,35
8,14664,93,-1703382,56288,35
9,10364,24,-2867231,56288,35
10,-1812,742,-2977182,56288,35
11,54517,67,-3428898,56288,35
12,3943,908,-2416072,56288,35
13,2385,423,-861412,8,56288,35
14,5005,126,-1579837,56288,35

