Generation|PopBest|PopAvg|BestOverall
0|-4351,913|-8052703|-4351,913
1|-6163,293|-9904386|-4351,913
2|2228,786|-8231375|2228,786
3|9081,476|-1,044522E+07|9081,476
4|14902,54|-7831125|14902,54
5|51,03286|-5608941|14902,54
6|-5619,615|-3646081|14902,54
7|15618,74|-3593178|15618,74
8|1893,38|-5602245|15618,74
9|70509,29|-4536779|70509,29
10|73720,02|-3644027|73720,02
11|9337,638|-4039728|73720,02
12|55197,81|-3927527|73720,02
13|50647,86|-6650533|73720,02
14|45911,66|-4147265|73720,02

