Generation,PopBest,PopAvg,BestOverall
0,41152,55,-8388100,41152,55
1,-13350,2,-8002305,41152,55
2,-33659,63,-1,046516E+07,41152,55
3,-2616,991,-9113742,41152,55
4,-5038,41,-9511427,41152,55
5,-19240,48,-9058636,41152,55
6,54648,38,-6382553,54648,38
7,-4896,9,-8504819,54648,38
8,-62119,58,-1,113015E+07,54648,38
9,-24961,26,-7500354,54648,38
10,-9655,82,-7549798,54648,38
11,-65488,54,-7445751,54648,38
12,56413,88,-8999990,56413,88
13,-61550,8,-7554050,56413,88
14,-3080,598,-1,006284E+07,56413,88

