Generation,PopBest,PopAvg,BestOverall
0,53202,47,-8396127,53202,47
1,-3169,928,-7331802,53202,47
2,-4081,701,-8556956,53202,47
3,-76354,27,-1,068127E+07,53202,47
4,-7471,248,-7496142,53202,47
5,50180,59,-7888836,53202,47
6,-10001,28,-8502555,53202,47
7,5199,532,-8445468,53202,47
8,66940,93,-9346546,66940,93
9,43570,6,-6539045,66940,93
10,375166,5,-1,000043E+07,375166,5
11,54690,52,-6211777,375166,5
12,-62504,42,-8057241,375166,5
13,-28035,48,-1,012313E+07,375166,5
14,-4433,317,-1,127142E+07,375166,5

