Generation,PopBest,PopAvg,BestOverall
0,-7562,452,-6990167,-7562,452
1,26431,51,-9006836,26431,51
2,8403,276,-6824678,26431,51
3,374957,6,-1,50153E+08,374957,6
4,-1534,513,-1,166619E+07,374957,6
5,480,8137,-8340632,374957,6
6,54476,44,-5764095,374957,6
7,3848,66,-5603148,374957,6
8,-6322,452,-7945562,374957,6
9,-9813,452,-8896970,374957,6
10,-348,9589,-1,000456E+07,374957,6
11,1690,181,-5664184,374957,6
12,1109,937,-7276353,374957,6
13,3182,783,-8392489,374957,6
14,23042,87,-6882490,374957,6

