Generation;PopBest;PopAvg;BestOverall
0;2350,437;-9062292;2350,437
1;-1673501;-9728036;2350,437
2;-2962,234;-8451182;2350,437
3;275,4144;-8556410;2350,437
4;1181,213;-8502507;2350,437
5;-8731,614;-5214332;2350,437
6;-7838,478;-6722753;2350,437
7;11203,57;-4542405;11203,57
8;50906,41;-6166071;50906,41
9;20014,36;-7504221;50906,41
10;53726,93;-4880839;53726,93
11;26370,73;-4083372;53726,93
12;40124,96;-5099125;53726,93
13;19270,97;-5605425;53726,93
14;47930,91;-5439878;53726,93
