Generation;PopBest;PopAvg;BestOverall
0;-56665,29;-9169225;-56665,29
1;-7117,705;-1,00E+07;-7117,705
2;54357,84;-6266830;54357,84
3;48700,66;-1915744;54357,84
4;526,4542;-3933231;54357,84
5;-9970,073;-2538503;54357,84
6;1646175;-2310859;1646175
7;408666,3;-3791748;1646175
8;1674281;-3652396;1674281
9;49333,95;-4535287;1674281
10;1701774;-2487338;1701774
11;344814,7;-3134852;1701774
12;4,31E+07;410128,1;4,31E+07
13;5786848;-2983094;4,31E+07
14;4,31E+07;-5,22E+07;4,31E+07
