Generation,PopBest,PopAvg,BestOverall
0,-29414,19,-7337643,-29414,19
1,235,7653,-8002011,235,7653
2,-1181,012,-7894825,235,7653
3,71890,89,-8387081,71890,89
4,20965,39,-4878491,71890,89
5,55342,27,-6107187,71890,89
6,10423,55,-5664453,71890,89
7,-8676,603,-6779431,71890,89
8,374417,8,-5201692,374417,8
9,456,7948,-6266105,374417,8
10,1694239,-5603148,1694239
11,3691,051,-4655275,1694239
12,670,6285,-6778346,1694239
13,1,673971E+07,-6102693,1,673971E+07
14,7245,67,-5769189,1,673971E+07

