Generation,PopBest,PopAvg,BestOverall
0,8348,733,-8391702,8348,733
1,9604,899,-1,101891E+07,9604,899
2,50471,94,-8729343,50471,94
3,-9753,821,-8559287,50471,94
4,-1106,135,-7441190,50471,94
5,47872,16,-6828931,50471,94
6,-2916,803,-6383119,50471,94
7,20035,91,-4996533,50471,94
8,5604,952,-6220992,50471,94
9,12519,98,-4884611,50471,94
10,36,72869,-1,153233E+07,50471,94
11,-710,7955,-4977924,50471,94
12,-1754,885,-5775593,50471,94
13,-447,6559,-2637436,50471,94
14,54837,39,-6827505,54837,39

